Project 1: Covid Vaccination Response
…
Pivoting wider produces a strange version of the dataset in which columns are countries and rows are dates.

#Easily inspect the temporal vaccination response of each country with one line of code
Daily_vaccinations[,c("date","United States")]

## # A tibble: 87 x 2
##    date       `United States`
##    <date>               <dbl>
##  1 2021-01-10              NA
##  2 2021-01-12          641524
##  3 2021-01-13          710238
##  4 2021-01-14          747082
##  5 2021-01-15          798707
##  6 2021-01-16              NA
##  7 2021-01-17              NA
##  8 2021-01-18              NA
##  9 2021-01-19          911493
## 10 2021-01-20          892403
## # ... with 77 more rows

This line of code allows for easy inspection of the temporal daily vaccination response of any country. I included this specific manipulation initially as a means of displaying my use of pivot_wider, but, after further inspection I found it be very useful and easy to explore. 

#average vaccinations taking place per day, per country
Daily_vaccinations %>% summarise_all(list(mean = mean, sd = sd), na.rm=T) %>% .[,-1] %>% pivot_longer(contains("_")) %>% separate(name, sep = "_", into = c("Country", "Statistic")) %>% pivot_wider(., names_from = Statistic, values_from = value) %>% arrange(Country)

## # A tibble: 130 x 3
##    Country       mean      sd
##    <chr>        <dbl>   <dbl>
##  1 Albania       288    381. 
##  2 Algeria      1889   2629. 
##  3 Andorra        58     16.3
##  4 Anguilla      192.   123. 
##  5 Argentina   23403. 19080. 
##  6 Australia    4669   2526. 
##  7 Austria     11142.  6280. 
##  8 Azerbaijan  10072.  4861. 
##  9 Bahrain      3748.  2553. 
## 10 Bangladesh 112385. 62601. 
## # ... with 120 more rows
…
